[
  {
    "text": "Requisitos sobre o serviço Dosagem de ureia, Hemograma completo, Contagem plaquetas, Radar do comércio?",
    "intent": "req_serv",
    "intent_prediction": {
      "name": "serv_online_desc",
      "confidence": 0.3145352900028229
    }
  },
  {
    "text": "Como posso saber [necessário] (obrigatório) para Dosagem de ureia, Hemograma completo, Contagem plaquetas, Radar do comércio?",
    "intent": "req_serv",
    "intent_prediction": {
      "name": "doc_neces",
      "confidence": 0.9769352674484253
    }
  },
  {
    "text": "Qual é o [necessário] (requisito) para a realização deste Dosagem de ureia, Hemograma completo, Contagem plaquetas, Radar do comércio?",
    "intent": "req_serv",
    "intent_prediction": {
      "name": "doc_neces",
      "confidence": 0.8664186596870422
    }
  },
  {
    "text": "Em Serviço Gratuito, quais serviços 24 horas, todas as semanas, de segunda a sexta-feira, todos os dias",
    "intent": "serv_gratis",
    "intent_prediction": {
      "name": "hor_func",
      "confidence": 0.5688298940658569
    }
  }
]