{
  "todo dia": "24h",
  "segunda a sexta": "24h",
  "semanalmente": "24h",
  "diariamente": "24h",
  "24 horas": "24h",
  "atendido": "atendimento",
  "auxiliado": "atendimento",
  "ajudado": "atendimento",
  "apoiado": "atendimento"
}